^D:\FVTCASSINGMENTS\SPRING 2022\C++\SP.LAB2-PLAYINGCARDS\SP.LAB2-PLAYINGCARDS\DEBUG\MAIN.OBJ
D:\FVTCASSINGMENTS\SPRING 2022\C++\SP.LAB2-PLAYINGCARDS\DEBUG\SP.LAB2-PLAYINGCARDS.EXE
D:\FVTCASSINGMENTS\SPRING 2022\C++\SP.LAB2-PLAYINGCARDS\SP.LAB2-PLAYINGCARDS\DEBUG\SP.LAB2-PLAYINGCARDS.ILK
D:\FVTCASSINGMENTS\SPRING 2022\C++\SP.LAB2-PLAYINGCARDS\DEBUG\SP.LAB2-PLAYINGCARDS.PDB
